{
    "owner": "ZidArgs",
    "team": [
        "fraggerman"
    ],
    "contributors": [
        "Luigimeansme",
        "pidgezero_one",
        "Elagatua",
        "Takacomic",
        "TotallyABot"
    ]
}